
    digraph textX {
    fontname = "Bitstream Vera Sans"
    fontsize = 8
    node[
        shape=record,
        style=filled,
        fillcolor=aliceblue
    ]
    nodesep = 0.3
    edge[dir=black,arrowtail=empty]


93848673755424[ label="{HelloWorldModel|}"]

93848673759568[ label="{Who|name: STRING\l}"]



93848673755424 -> 93848673759568[arrowtail=diamond, dir=both, headlabel="to_greet 1..*"]

}
